R_spark
…
We are also including a stop_words vector, consisting of commonly used English words and common words in our dataset, that instructs the algorithm to ignore them. After the model is fit, we can use the tidy() function to extract the associated betas, which are the per-topic-per-word probabilities, from the model.

betas <- tidy(lda_model)

## New names:
## * `` -> ...1
## * `` -> ...2
## * `` -> ...3
## * `` -> ...4
## * `` -> ...5
## * ...

betas

## # A tibble: 257,388 x 3
##    topic term      beta
##    <int> <chr>    <dbl>
##  1     0 know      239.
##  2     0 work      244.
##  3     0 want      332.
##  4     0 books     215.
##  5     0 family    200.
##  6     0 think     262.
##  7     0 going     158.
##  8     0 anything  269.
##  9     0 enjoy     113.
## 10     0 much      232.
## # ... with 257,378 more rows
…
